<svg xmlns="http://www.w3.org/2000/svg" width="2128" height="2500" viewBox="427 102 170 200">
  <path
    d="M442 142l-4 2 1 4 19 34-31 54v5l4 2h29c4 0 6-3 8-6l31-55-20-35c-1-2-3-5-8-5h-29z"
    fill="#fff"
  ></path>
  <path
    d="M564 103c-5 0-7 2-8 5l-64 114 41 75c1 3 3 5 8 5h29l3-1v-5l-40-74 63-113 1-5-4-2h-29z"
    fill="#fff"
  ></path>
</svg>