<svg
    width="327"
    height="117"
    viewBox="0 0 327 117"
    fill="none"
    xmlns="http://www.w3.org/2000/svg"
  >
    <path
      d="M139.432 24.456C139.432 16.604 134.024 13.172 126.796 13.172C122.844 13.172 118.788 13.276 114.316 13.38L113.952 13.744V49C115.304 49.26 117.072 49.312 118.06 49.312C119.204 49.312 120.816 49.26 122.22 49V36H124.352C127.16 36 128.148 37.456 128.772 39.224L130.644 44.684C131.736 47.856 132.724 49.468 135.74 49.468C137.924 49.468 140.212 48.428 141.252 47.024C140.108 46.14 139.172 44.736 138.652 43.176L137.092 38.756C136.312 36.52 135.064 34.7 133.088 33.972C136.052 32.828 139.432 29.5 139.432 24.456ZM122.22 19.412C123.676 19.464 125.028 19.464 126.068 19.464C130.02 19.464 130.956 21.752 130.956 24.456C130.956 27.108 130.02 29.5 126.068 29.5C125.392 29.5 123.832 29.552 122.22 29.604V19.412ZM166.764 36C166.764 31.476 165.776 28.096 163.02 25.34C160.836 23.208 157.976 22.272 154.752 22.272C151.476 22.272 148.616 23.208 146.484 25.34C143.728 28.096 142.74 31.476 142.74 36C142.74 40.576 143.728 43.956 146.484 46.712C148.616 48.844 151.476 49.78 154.752 49.78C157.976 49.78 160.836 48.844 163.02 46.712C165.776 43.956 166.764 40.576 166.764 36ZM151.06 36C151.06 31.736 151.528 28.356 154.752 28.356C157.924 28.356 158.392 31.736 158.392 36C158.392 40.316 157.924 43.696 154.752 43.696C151.528 43.696 151.06 40.316 151.06 36ZM185.352 33.348V49C186.548 49.208 188.056 49.312 189.408 49.312C190.812 49.312 192.372 49.208 193.516 49V31.684C194.608 30.592 195.856 29.864 196.844 29.864C197.936 29.864 199.288 30.54 199.288 33.296V44.372C199.288 47.648 200.38 49.416 203.656 49.416C205.684 49.416 207.504 48.688 208.7 47.648C207.764 46.348 207.4 44.528 207.4 42.5V30.852C207.4 26.12 205.06 22.584 200.484 22.584C197.624 22.584 194.712 24.196 192.476 26.172C191.332 23.988 189.252 22.584 186.392 22.584C183.688 22.584 181.244 24.092 179.216 25.964C178.54 23.884 177.084 22.688 174.848 22.688H171.832L171.468 23.052V49C172.612 49.208 174.172 49.312 175.524 49.312C176.928 49.312 178.436 49.208 179.58 49V31.632C180.672 30.592 181.92 29.916 183.012 29.864C184.156 29.864 185.352 30.592 185.352 33.348ZM235.512 45.256C234.472 44.528 234.056 43.384 234.056 41.876V31.32C234.056 24.716 229.324 22.428 224.8 22.428C221.42 22.428 216.376 23.312 212.892 24.716C213.1 26.744 213.724 29.032 214.868 30.384C217.572 29.552 220.276 28.72 222.512 28.72C224.852 28.72 225.892 29.812 225.892 31.996V32.984C224.54 32.88 223.136 32.88 222.2 32.88C216.844 32.88 211.904 35.636 211.904 41.876C211.904 45.62 214.452 49.78 219.808 49.78C223.188 49.78 225.58 48.376 227.4 46.66C228.544 48.168 230.364 49.364 233.016 49.416C234.056 48.636 235.2 46.66 235.512 45.256ZM222.2 43.8C220.744 43.8 219.808 42.76 219.808 41.356C219.808 39.38 220.744 38.028 223.084 38.028C223.812 38.028 224.852 38.08 225.892 38.132V42.292C224.696 43.28 223.396 43.8 222.2 43.8ZM262.484 31.84C262.484 26.432 259.936 22.584 255.204 22.584C252.188 22.584 249.848 23.988 247.82 25.808C247.144 23.832 245.74 22.688 243.556 22.688H240.488L240.124 23.052V49C241.268 49.208 242.828 49.312 244.18 49.312C245.584 49.312 247.092 49.208 248.236 49V31.632C249.588 30.384 251.044 29.864 252.084 29.864C253.852 29.864 254.32 30.956 254.32 33.296V44.372C254.32 47.648 255.412 49.416 258.688 49.416C260.716 49.416 262.536 48.688 263.732 47.648C262.796 46.348 262.484 44.528 262.484 42.5V31.84Z"
      fill="white"
    ></path>
    <path
      d="M141.876 65.12H139.172C136 65.12 134.544 66.472 134.544 70.164V76.508C134.544 80.096 134.752 87.012 135.168 91.848L134.96 91.952C134.232 90.028 133.036 87.116 131.736 84.048L123.676 65.484C121.856 65.224 119.932 65.172 118.892 65.172C117.852 65.172 115.252 65.328 113.952 65.64V101C115.252 101.26 116.916 101.312 117.904 101.312C118.944 101.312 120.348 101.26 121.7 101V90.652C121.7 86.336 121.44 79.524 121.076 75.104L121.232 75.052C121.96 77.028 123 79.732 124.196 82.384L132.36 101C134.18 101.26 136.156 101.312 137.196 101.312C138.236 101.312 140.888 101.156 142.24 100.844V65.484L141.876 65.12ZM169.555 90.652C170.075 88.936 170.231 87.584 170.231 85.296C170.231 79.004 166.279 74.272 159.415 74.272C151.147 74.272 147.767 80.356 147.767 88.208C147.767 95.072 150.211 101.78 159.363 101.78C163.003 101.78 166.955 100.688 169.555 98.816C169.347 97.204 168.619 95.228 167.423 94.032C165.291 94.864 163.003 95.592 160.663 95.592C157.231 95.592 156.243 93.46 155.983 90.652H169.555ZM159.363 80.044C161.807 80.044 162.795 82.072 162.795 84.464V85.036H155.931C156.139 81.656 157.075 80.044 159.363 80.044ZM175.019 92.212C175.019 97.62 177.567 101.468 182.299 101.468C185.471 101.468 188.019 99.752 190.203 97.776C191.347 99.908 193.427 101.312 196.339 101.416C197.379 100.636 198.523 98.764 198.835 97.36C197.951 96.736 197.379 95.228 197.379 93.564V75.052C196.183 74.844 194.675 74.74 193.323 74.74C191.919 74.74 190.411 74.844 189.267 75.052V92.42C187.915 93.72 186.407 94.188 185.419 94.188C183.651 94.188 183.183 93.096 183.183 90.704V79.68C183.183 76.404 182.091 74.636 178.815 74.636C176.787 74.636 174.915 75.364 173.771 76.352C174.707 77.704 175.019 79.524 175.019 81.552V92.212ZM217.598 85.348V101C218.794 101.208 220.302 101.312 221.654 101.312C223.058 101.312 224.618 101.208 225.762 101V83.684C226.854 82.592 228.102 81.864 229.09 81.864C230.182 81.864 231.534 82.54 231.534 85.296V96.372C231.534 99.648 232.626 101.416 235.902 101.416C237.93 101.416 239.75 100.688 240.946 99.648C240.01 98.348 239.646 96.528 239.646 94.5V82.852C239.646 78.12 237.306 74.584 232.73 74.584C229.87 74.584 226.958 76.196 224.722 78.172C223.578 75.988 221.498 74.584 218.638 74.584C215.934 74.584 213.49 76.092 211.462 77.964C210.786 75.884 209.33 74.688 207.094 74.688H204.078L203.714 75.052V101C204.858 101.208 206.418 101.312 207.77 101.312C209.174 101.312 210.682 101.208 211.826 101V83.632C212.918 82.592 214.166 81.916 215.258 81.864C216.402 81.864 217.598 82.592 217.598 85.348ZM267.758 97.256C266.718 96.528 266.302 95.384 266.302 93.876V83.32C266.302 76.716 261.57 74.428 257.046 74.428C253.666 74.428 248.622 75.312 245.138 76.716C245.346 78.744 245.97 81.032 247.114 82.384C249.818 81.552 252.522 80.72 254.758 80.72C257.098 80.72 258.138 81.812 258.138 83.996V84.984C256.786 84.88 255.382 84.88 254.446 84.88C249.09 84.88 244.15 87.636 244.15 93.876C244.15 97.62 246.698 101.78 252.054 101.78C255.434 101.78 257.826 100.376 259.646 98.66C260.79 100.168 262.61 101.364 265.262 101.416C266.302 100.636 267.446 98.66 267.758 97.256ZM254.446 95.8C252.99 95.8 252.054 94.76 252.054 93.356C252.054 91.38 252.99 90.028 255.33 90.028C256.058 90.028 257.098 90.08 258.138 90.132V94.292C256.942 95.28 255.642 95.8 254.446 95.8ZM294.73 83.84C294.73 78.432 292.182 74.584 287.45 74.584C284.434 74.584 282.094 75.988 280.066 77.808C279.39 75.832 277.986 74.688 275.802 74.688H272.734L272.37 75.052V101C273.514 101.208 275.074 101.312 276.426 101.312C277.83 101.312 279.338 101.208 280.482 101V83.632C281.834 82.384 283.29 81.864 284.33 81.864C286.098 81.864 286.566 82.956 286.566 85.296V96.372C286.566 99.648 287.658 101.416 290.934 101.416C292.962 101.416 294.782 100.688 295.978 99.648C295.042 98.348 294.73 96.528 294.73 94.5V83.84ZM323.168 83.84C323.168 78.432 320.62 74.584 315.888 74.584C312.872 74.584 310.532 75.988 308.504 77.808C307.828 75.832 306.424 74.688 304.24 74.688H301.172L300.808 75.052V101C301.952 101.208 303.512 101.312 304.864 101.312C306.268 101.312 307.776 101.208 308.92 101V83.632C310.272 82.384 311.728 81.864 312.768 81.864C314.536 81.864 315.004 82.956 315.004 85.296V96.372C315.004 99.648 316.096 101.416 319.372 101.416C321.4 101.416 323.22 100.688 324.415 99.648C323.48 98.348 323.168 96.528 323.168 94.5V83.84Z"
      fill="white"
    ></path>
    <path
      d="M56.7 55.1C55 57.6 53 59.6 50.8 61.1L78 100.8H56.9L26 55.6C25.6 55.1 25.9 54.3 26.6 54.3C30.6 54.1 34.5 53.6 36.6 52.2C39 50.6 41.1 46.8 41.1 42.4C41.1 38.2 39 34.8 36.3 33.1C34.1 31.7 30.8 30.9 28 30.9H20.5V100.9H2.7C1.2 100.9 0 99.7 0 98.2V15.7C0 14.2 1.2 13 2.7 13H26.2C38.7 13 46.5 15.3 51 18.8C57.7 24 60.7 31.8 60.7 40.6C60.7 46.8 59 51.5 56.7 55.1Z"
      fill="#419DF1"
    ></path>
    <path
      d="M67.1001 13V84.8C67.1001 84.8 64.8852 81.6128 62.0884 77.5759L78.0001 100.8H85.0001C86.5001 100.8 87.7001 99.6 87.7001 98.1V15.7C87.7001 14.2 86.5001 13 85.0001 13H67.1001Z"
      fill="#3172AE"
    ></path>
    <path
      fill-rule="evenodd"
      clip-rule="evenodd"
      d="M50.8 61.1C53 59.6 55 57.6 56.7 55.1C59 51.5 60.7 46.8 60.7 40.6C60.7 31.8 57.7 24 51 18.8C46.5 15.3 38.7 13 26.2 13H16.5L29.3033 30.9545C31.776 31.1566 34.4338 31.9124 36.3 33.1C39 34.8 41.1 38.2 41.1 42.4C41.1 43.8849 40.8608 45.3015 40.4517 46.5882L50.8 61.1ZM50.8 61.1C50.7367 61.1632 57.2746 70.628 62.0883 77.5759L50.8 61.1ZM26 55.6L25.984 55.5793C25.9892 55.5863 25.9945 55.5932 26 55.6Z"
      fill="#47E6EB"
    ></path>
  </svg>